{
  "Precipitate": {
    "en": "Trigger precipitation in {vessel} by chilling to {temp} for {time}",
    "zh": "\u964d\u6e29\u81f3\u6e29\u5ea6\u4e3a{temp}\uff0c \u4fdd\u6301\u65f6\u95f4\u4e3a{time}\uff0c\u4fc3\u4f7f{vessel}\u4e2d\u7684\u6c89\u6dc0\u6790\u51fa\u3002",
    "ru": "\u041e\u0445\u043b\u0430\u0434\u0438\u0442\u044c {vessel} \u0434\u043e \u0442\u0435\u043c\u043f\u0435\u0440\u0430\u0442\u0443\u0440\u044b {temp} \u0432 \u0442\u0435\u0447\u0435\u043d\u0438\u0435 {time} \u0434\u043b\u044f \u043e\u0431\u0440\u0430\u0437\u043e\u0432\u0430\u043d\u0438\u044f \u043e\u0441\u0430\u0434\u043a\u0430."
  }
}
